<?xml version="1.0" encoding="UTF-8" standalone="no"?>
<!-- Created with Inkscape (http://www.inkscape.org/) -->

<svg
   xmlns:dc="http://purl.org/dc/elements/1.1/"
   xmlns:cc="http://creativecommons.org/ns#"
   xmlns:rdf="http://www.w3.org/1999/02/22-rdf-syntax-ns#"
   xmlns:svg="http://www.w3.org/2000/svg"
   xmlns="http://www.w3.org/2000/svg"
   xmlns:xlink="http://www.w3.org/1999/xlink"
   xmlns:sodipodi="http://sodipodi.sourceforge.net/DTD/sodipodi-0.dtd"
   xmlns:inkscape="http://www.inkscape.org/namespaces/inkscape"
   width="200mm"
   height="120mm"
   viewBox="0 0 708.66142 425.19685"
   id="svg2"
   version="1.1"
   inkscape:version="0.91 r13725"
   sodipodi:docname="logo_fusioniam_2.svg">
  <defs
     id="defs4">
    <radialGradient
       r="47.387501"
       cy="-138.64999"
       cx="41.850101"
       gradientTransform="matrix(3.10318,0,0,-0.570675,-179.518,705.094)"
       gradientUnits="userSpaceOnUse"
       id="radialGradient4751"
       xlink:href="#SVGID_2_-5"
       inkscape:collect="always" />
    <radialGradient
       gradientUnits="userSpaceOnUse"
       gradientTransform="matrix(1,0,0,0.1839,0,-113.158)"
       r="47.387501"
       cy="-138.64999"
       cx="41.850101"
       id="SVGID_2_-5">
      <stop
         id="stop28"
         style="stop-color:#000000;stop-opacity:0.3098"
         offset="0" />
      <stop
         id="stop30"
         style="stop-color:#000000;stop-opacity:0"
         offset="1" />
    </radialGradient>
    <radialGradient
       inkscape:collect="always"
       xlink:href="#SVGID_2_-5"
       id="radialGradient4805"
       gradientUnits="userSpaceOnUse"
       gradientTransform="matrix(7.74559,0,0,-1.42441,48.8528,701.842)"
       cx="41.850101"
       cy="-138.64999"
       r="47.387501" />
    <linearGradient
       gradientTransform="matrix(3.10318,0,0,-3.10318,120.482,353.944)"
       y2="-75.816803"
       x2="23.819201"
       y1="-142.742"
       x1="32.691399"
       gradientUnits="userSpaceOnUse"
       id="linearGradient5114"
       xlink:href="#SVGID_3_-3"
       inkscape:collect="always" />
    <linearGradient
       y2="-75.816803"
       x2="23.819201"
       y1="-142.742"
       x1="32.691399"
       gradientUnits="userSpaceOnUse"
       id="SVGID_3_-3">
      <stop
         id="stop37"
         style="stop-color:#4F521A"
         offset="0" />
      <stop
         id="stop39"
         style="stop-color:#C4CF51"
         offset="1" />
    </linearGradient>
    <linearGradient
       y2="-69.650597"
       x2="23.6049"
       y1="-96.074203"
       x1="32.334"
       gradientUnits="userSpaceOnUse"
       id="SVGID_4_-5">
      <stop
         id="stop44"
         style="stop-color:#3F4114"
         offset="0" />
      <stop
         id="stop46"
         style="stop-color:#B6C04B"
         offset="1" />
    </linearGradient>
    <linearGradient
       y2="-70.492798"
       x2="21.055099"
       y1="-96.916496"
       x1="29.784201"
       gradientUnits="userSpaceOnUse"
       id="SVGID_5_-6">
      <stop
         id="stop51"
         style="stop-color:#515319"
         offset="0" />
      <stop
         id="stop53"
         style="stop-color:#A9B347"
         offset="1" />
    </linearGradient>
    <linearGradient
       y2="-70.735001"
       x2="20.321699"
       y1="-97.158699"
       x1="29.0508"
       gradientUnits="userSpaceOnUse"
       id="SVGID_6_-2">
      <stop
         id="stop62"
         style="stop-color:#4F521A"
         offset="0" />
      <stop
         id="stop64"
         style="stop-color:#C4CF51"
         offset="1" />
    </linearGradient>
    <linearGradient
       y2="-71.451797"
       x2="18.1513"
       y1="-97.875504"
       x1="26.8804"
       gradientUnits="userSpaceOnUse"
       id="SVGID_7_-9">
      <stop
         id="stop81"
         style="stop-color:#272814"
         offset="0" />
      <stop
         id="stop83"
         style="stop-color:#C4CF51"
         offset="1" />
    </linearGradient>
    <radialGradient
       gradientTransform="matrix(7.74559,0,0,-7.74559,111.451,-187.056)"
       r="19.75"
       cy="-116.55"
       cx="37.5"
       gradientUnits="userSpaceOnUse"
       id="radialGradient5091"
       xlink:href="#SVGID_8_"
       inkscape:collect="always" />
    <radialGradient
       gradientUnits="userSpaceOnUse"
       r="19.75"
       cy="-116.55"
       cx="37.5"
       id="SVGID_8_">
      <stop
         id="stop88"
         style="stop-color:#B6C04B"
         offset="0" />
      <stop
         id="stop90"
         style="stop-color:#3F4114"
         offset="1" />
    </radialGradient>
    <linearGradient
       y2="-92.840599"
       x2="34.1227"
       y1="-97.6465"
       x1="25.8262"
       gradientUnits="userSpaceOnUse"
       id="SVGID_9_">
      <stop
         id="stop95"
         style="stop-color:#38390B"
         offset="0" />
      <stop
         id="stop97"
         style="stop-color:#2B2D02"
         offset="1" />
    </linearGradient>
    <linearGradient
       y2="-68.711998"
       x2="44.9757"
       y1="-77.163101"
       x1="47.772499"
       gradientUnits="userSpaceOnUse"
       id="SVGID_10_">
      <stop
         id="stop104"
         style="stop-color:#704422"
         offset="0" />
      <stop
         id="stop106"
         style="stop-color:#C6AA75"
         offset="1" />
    </linearGradient>
    <linearGradient
       y2="-88.663399"
       x2="52.091499"
       y1="-89.644501"
       x1="47.917999"
       gradientUnits="userSpaceOnUse"
       id="SVGID_11_">
      <stop
         id="stop113"
         style="stop-color:#966946"
         offset="0.0039" />
      <stop
         id="stop115"
         style="stop-color:#E3C893"
         offset="1" />
    </linearGradient>
    <linearGradient
       y2="-93.088699"
       x2="53.131599"
       y1="-94.069801"
       x1="48.958"
       gradientUnits="userSpaceOnUse"
       id="SVGID_12_">
      <stop
         id="stop120"
         style="stop-color:#704422"
         offset="0" />
      <stop
         id="stop122"
         style="stop-color:#C6AA75"
         offset="1" />
    </linearGradient>
    <linearGradient
       y2="-109.132"
       x2="59.449501"
       y1="-113.91"
       x1="54.3521"
       gradientUnits="userSpaceOnUse"
       id="SVGID_13_">
      <stop
         id="stop127"
         style="stop-color:#704422"
         offset="0" />
      <stop
         id="stop129"
         style="stop-color:#C6AA75"
         offset="1" />
    </linearGradient>
    <linearGradient
       y2="-67.308296"
       x2="30.694799"
       y1="-93.731903"
       x1="39.423801"
       gradientUnits="userSpaceOnUse"
       id="SVGID_14_">
      <stop
         id="stop134"
         style="stop-color:#434515"
         offset="0" />
      <stop
         id="stop136"
         style="stop-color:#C4CF51"
         offset="1" />
    </linearGradient>
    <linearGradient
       y2="-110.354"
       x2="40.5145"
       y1="-102.722"
       x1="50.183601"
       gradientUnits="userSpaceOnUse"
       id="SVGID_15_">
      <stop
         id="stop143"
         style="stop-color:#4F521A"
         offset="0" />
      <stop
         id="stop145"
         style="stop-color:#3B400C"
         offset="1" />
    </linearGradient>
    <linearGradient
       y2="-114.133"
       x2="27.3762"
       y1="-136.733"
       x1="28.045401"
       gradientUnits="userSpaceOnUse"
       id="SVGID_16_">
      <stop
         id="stop150"
         style="stop-color:#4F521A"
         offset="0" />
      <stop
         id="stop152"
         style="stop-color:#989F4C"
         offset="1" />
    </linearGradient>
    <linearGradient
       y2="-66.482597"
       x2="33.194302"
       y1="-92.906303"
       x1="41.923302"
       gradientUnits="userSpaceOnUse"
       id="SVGID_17_">
      <stop
         id="stop157"
         style="stop-color:#28290B"
         offset="0.0039" />
      <stop
         id="stop159"
         style="stop-color:#C4CF51"
         offset="1" />
    </linearGradient>
    <linearGradient
       y2="-114.029"
       x2="30.898701"
       y1="-136.629"
       x1="31.5679"
       gradientUnits="userSpaceOnUse"
       id="SVGID_18_">
      <stop
         id="stop164"
         style="stop-color:#1A1B06"
         offset="0" />
      <stop
         id="stop166"
         style="stop-color:#62672C"
         offset="1" />
    </linearGradient>
    <linearGradient
       y2="-118.727"
       x2="42.065102"
       y1="-146.476"
       x1="38.278301"
       gradientUnits="userSpaceOnUse"
       id="SVGID_19_">
      <stop
         id="stop171"
         style="stop-color:#8F9639"
         offset="0" />
      <stop
         id="stop173"
         style="stop-color:#868A1C"
         offset="1" />
    </linearGradient>
    <linearGradient
       y2="-63.906898"
       x2="40.991199"
       y1="-90.330597"
       x1="49.7202"
       gradientUnits="userSpaceOnUse"
       id="SVGID_20_">
      <stop
         id="stop178"
         style="stop-color:#3A3D12"
         offset="0" />
      <stop
         id="stop180"
         style="stop-color:#C4CF51"
         offset="1" />
    </linearGradient>
    <linearGradient
       y2="-66.0895"
       x2="34.384701"
       y1="-92.513199"
       x1="43.1138"
       gradientUnits="userSpaceOnUse"
       id="SVGID_21_">
      <stop
         id="stop185"
         style="stop-color:#2C2E0D"
         offset="0" />
      <stop
         id="stop187"
         style="stop-color:#C4CF51"
         offset="1" />
    </linearGradient>
    <linearGradient
       y2="-63.584599"
       x2="41.966301"
       y1="-90.008301"
       x1="50.695301"
       gradientUnits="userSpaceOnUse"
       id="SVGID_22_">
      <stop
         id="stop192"
         style="stop-color:#4E5018"
         offset="0" />
      <stop
         id="stop194"
         style="stop-color:#C4CF51"
         offset="1" />
    </linearGradient>
    <linearGradient
       y2="-69.762901"
       x2="23.2651"
       y1="-96.186501"
       x1="31.994101"
       gradientUnits="userSpaceOnUse"
       id="SVGID_23_">
      <stop
         id="stop199"
         style="stop-color:#3B3D12"
         offset="0" />
      <stop
         id="stop201"
         style="stop-color:#C4CF51"
         offset="1" />
    </linearGradient>
    <linearGradient
       y2="-69.0485"
       x2="25.426701"
       y1="-95.472198"
       x1="34.1558"
       gradientUnits="userSpaceOnUse"
       id="SVGID_24_">
      <stop
         id="stop206"
         style="stop-color:#2F300E"
         offset="0" />
      <stop
         id="stop208"
         style="stop-color:#C4CF51"
         offset="1" />
    </linearGradient>
    <linearGradient
       y2="-125.004"
       x2="70.546997"
       y1="-130.505"
       x1="71.289597"
       gradientUnits="userSpaceOnUse"
       id="SVGID_25_">
      <stop
         id="stop223"
         style="stop-color:#704422"
         offset="0" />
      <stop
         id="stop225"
         style="stop-color:#C6AA75"
         offset="1" />
    </linearGradient>
    <linearGradient
       y2="-114.214"
       x2="24.6472"
       y1="-136.814"
       x1="25.316401"
       gradientUnits="userSpaceOnUse"
       id="SVGID_26_">
      <stop
         id="stop236"
         style="stop-color:#363810"
         offset="0" />
      <stop
         id="stop238"
         style="stop-color:#7D833D"
         offset="1" />
    </linearGradient>
    <linearGradient
       y2="-108.617"
       x2="37.684299"
       y1="-111.267"
       x1="37.7607"
       gradientUnits="userSpaceOnUse"
       id="SVGID_27_">
      <stop
         id="stop243"
         style="stop-color:#4F521A"
         offset="0" />
      <stop
         id="stop245"
         style="stop-color:#989F4C"
         offset="1" />
    </linearGradient>
    <linearGradient
       y2="-105.07"
       x2="14.8768"
       y1="-114.995"
       x1="15.1548"
       gradientUnits="userSpaceOnUse"
       id="SVGID_28_">
      <stop
         id="stop250"
         style="stop-color:#4F521A"
         offset="0" />
      <stop
         id="stop252"
         style="stop-color:#989F4C"
         offset="0.5725" />
      <stop
         id="stop254"
         style="stop-color:#BFC763"
         offset="1" />
    </linearGradient>
    <linearGradient
       y2="-101.963"
       x2="14.932"
       y1="-111.888"
       x1="15.21"
       gradientUnits="userSpaceOnUse"
       id="SVGID_29_">
      <stop
         id="stop259"
         style="stop-color:#383A10"
         offset="0" />
      <stop
         id="stop261"
         style="stop-color:#9BA24C"
         offset="1" />
    </linearGradient>
    <linearGradient
       y2="-101.913"
       x2="16.697201"
       y1="-111.838"
       x1="16.9751"
       gradientUnits="userSpaceOnUse"
       id="SVGID_30_">
      <stop
         id="stop266"
         style="stop-color:#0F1003"
         offset="0" />
      <stop
         id="stop268"
         style="stop-color:#606434"
         offset="1" />
    </linearGradient>
    <linearGradient
       y2="-101.911"
       x2="16.7743"
       y1="-111.836"
       x1="17.0522"
       gradientUnits="userSpaceOnUse"
       id="SVGID_31_">
      <stop
         id="stop273"
         style="stop-color:#383A10"
         offset="0" />
      <stop
         id="stop275"
         style="stop-color:#7F8544"
         offset="1" />
    </linearGradient>
    <linearGradient
       y2="-114.425"
       x2="5.4661999"
       y1="-127.579"
       x1="9.8275995"
       gradientUnits="userSpaceOnUse"
       id="SVGID_32_">
      <stop
         id="stop282"
         style="stop-color:#4F521A"
         offset="0" />
      <stop
         id="stop284"
         style="stop-color:#F7FFA5"
         offset="1" />
    </linearGradient>
    <linearGradient
       y2="-115.062"
       x2="3.5429001"
       y1="-128.217"
       x1="7.9043002"
       gradientUnits="userSpaceOnUse"
       id="SVGID_33_">
      <stop
         id="stop289"
         style="stop-color:#4F521A"
         offset="0" />
      <stop
         id="stop291"
         style="stop-color:#C4CF51"
         offset="1" />
    </linearGradient>
    <linearGradient
       y2="-115.07"
       x2="3.5209"
       y1="-128.224"
       x1="7.8822999"
       gradientUnits="userSpaceOnUse"
       id="SVGID_34_">
      <stop
         id="stop296"
         style="stop-color:#3C3E15"
         offset="0" />
      <stop
         id="stop298"
         style="stop-color:#C4CF51"
         offset="1" />
    </linearGradient>
    <linearGradient
       y2="-113.903"
       x2="7.0409002"
       y1="-127.057"
       x1="11.4023"
       gradientUnits="userSpaceOnUse"
       id="SVGID_35_">
      <stop
         id="stop303"
         style="stop-color:#2B2D0E"
         offset="0" />
      <stop
         id="stop305"
         style="stop-color:#C4CF51"
         offset="1" />
    </linearGradient>
    <linearGradient
       y2="-115.493"
       x2="2.2441001"
       y1="-128.64799"
       x1="6.6055002"
       gradientUnits="userSpaceOnUse"
       id="SVGID_36_">
      <stop
         id="stop310"
         style="stop-color:#353711"
         offset="0" />
      <stop
         id="stop312"
         style="stop-color:#C4CF51"
         offset="1" />
    </linearGradient>
    <linearGradient
       y2="-125.48"
       x2="24.427999"
       y1="-141.88"
       x1="24.871599"
       gradientUnits="userSpaceOnUse"
       id="SVGID_37_">
      <stop
         id="stop317"
         style="stop-color:#1A1B06"
         offset="0" />
      <stop
         id="stop319"
         style="stop-color:#575B28"
         offset="1" />
    </linearGradient>
    <linearGradient
       y2="-125.386"
       x2="27.877701"
       y1="-141.787"
       x1="28.321301"
       gradientUnits="userSpaceOnUse"
       id="SVGID_38_">
      <stop
         id="stop324"
         style="stop-color:#070701"
         offset="0" />
      <stop
         id="stop326"
         style="stop-color:#575B28"
         offset="1" />
    </linearGradient>
    <linearGradient
       inkscape:collect="always"
       xlink:href="#SVGID_20_"
       id="linearGradient6888"
       gradientUnits="userSpaceOnUse"
       gradientTransform="matrix(7.74559,0,0,-7.74559,-865.329,-444.11)"
       x1="49.7202"
       y1="-90.330597"
       x2="40.991199"
       y2="-63.906898" />
    <radialGradient
       r="47.387501"
       cy="-138.64999"
       cx="41.850101"
       gradientTransform="matrix(7.74559,0,0,-1.42441,48.8528,701.842)"
       gradientUnits="userSpaceOnUse"
       id="radialGradient7053"
       xlink:href="#SVGID_2_-5"
       inkscape:collect="always" />
    <radialGradient
       r="19.75"
       cy="-116.55"
       cx="37.5"
       gradientTransform="matrix(7.74559,0,0,-7.74559,111.451,-187.056)"
       gradientUnits="userSpaceOnUse"
       id="radialGradient7071"
       xlink:href="#SVGID_8_"
       inkscape:collect="always" />
    <radialGradient
       r="19.75"
       cy="-116.55"
       cx="37.5"
       gradientTransform="matrix(7.74559,0,0,-7.74559,111.451,-187.056)"
       gradientUnits="userSpaceOnUse"
       id="radialGradient7230"
       xlink:href="#SVGID_8_"
       inkscape:collect="always" />
    <radialGradient
       r="47.387501"
       cy="-138.64999"
       cx="41.850101"
       gradientTransform="matrix(7.74559,0,0,-1.42441,62.4084,693.62)"
       gradientUnits="userSpaceOnUse"
       id="radialGradient7266"
       xlink:href="#SVGID_2_-5"
       inkscape:collect="always" />
    <radialGradient
       r="47.387501"
       cy="-138.64999"
       cx="41.850101"
       gradientTransform="matrix(7.74559,0,0,-1.42441,62.4084,693.62)"
       gradientUnits="userSpaceOnUse"
       id="radialGradient7410"
       xlink:href="#SVGID_2_-5"
       inkscape:collect="always" />
    <radialGradient
       r="19.75"
       cy="-116.55"
       cx="37.5"
       gradientTransform="matrix(7.74559,0,0,-7.74559,111.451,-187.056)"
       gradientUnits="userSpaceOnUse"
       id="radialGradient7428"
       xlink:href="#SVGID_8_"
       inkscape:collect="always" />
    <radialGradient
       r="47.387501"
       cy="-138.64999"
       cx="41.850101"
       gradientTransform="matrix(7.74559,0,0,-1.42441,62.4084,693.62)"
       gradientUnits="userSpaceOnUse"
       id="radialGradient3406"
       xlink:href="#SVGID_2_-5"
       inkscape:collect="always" />
  </defs>
  <sodipodi:namedview
     id="base"
     pagecolor="#ffffff"
     bordercolor="#666666"
     borderopacity="1.0"
     inkscape:pageopacity="0.0"
     inkscape:pageshadow="2"
     inkscape:zoom="0.7"
     inkscape:cx="543.86564"
     inkscape:cy="344.01262"
     inkscape:document-units="px"
     inkscape:current-layer="layer1"
     showgrid="false"
     width="15mm"
     inkscape:window-width="1920"
     inkscape:window-height="975"
     inkscape:window-x="0"
     inkscape:window-y="0"
     inkscape:window-maximized="1" />
  <metadata
     id="metadata7">
    <rdf:RDF>
      <cc:Work
         rdf:about="">
        <dc:format>image/svg+xml</dc:format>
        <dc:type
           rdf:resource="http://purl.org/dc/dcmitype/StillImage" />
        <dc:title />
      </cc:Work>
    </rdf:RDF>
  </metadata>
  <g
     inkscape:label="Calque 1"
     inkscape:groupmode="layer"
     id="layer1"
     transform="translate(0,-627.16536)">
    <g
       transform="matrix(-0.11611259,-0.32177201,0.32177201,-0.11611259,102.60685,993.23826)"
       inkscape:label="Layer 1"
       id="layer1-7">
      <path
         inkscape:connector-curvature="0"
         style="fill:#e76709"
         d="m 213.97,664.91 c -9.8365,-1.0368 -14.817,-2.5467 -24,-7.2757 -14.666,-7.553 -24.161,-19.846 -26.682,-34.546 -2.0844,-12.155 1.9831,-23.716 11.706,-33.27 11.265,-11.069 22.994,-15.833 43.976,-17.86 26.563,-2.5667 40.47,-7.1733 40.515,-13.421 0.0126,-1.7191 0.18925,-1.8259 0.98469,-0.59501 1.7281,2.674 1.0592,9.894 -1.5,16.192 -1.375,3.3839 -2.5,6.2933 -2.5,6.4654 0,0.47287 4.8123,-2.6276 12.03,-7.7504 7.312,-5.19 11.819,-7.1446 20.47,-8.8773 3.3,-0.66094 9.0087,-2.0982 12.686,-3.1938 3.6773,-1.0957 7.7273,-1.8445 9,-1.6642 2.0134,0.28533 1.6916,0.69382 -2.4757,3.1434 -6.2668,3.6837 -11.458,8.2965 -13.261,11.783 -2.4647,4.7662 -1.6173,5.2861 2.5215,1.5469 4.8556,-4.3868 13.26,-8.7159 22.385,-11.531 8.8142,-2.7191 9.4508,-2.664 5.6988,0.49307 -3.1264,2.6307 -5.576,6.2037 -4.7912,6.9885 0.23377,0.23377 2.2766,-0.22823 4.5396,-1.0267 2.263,-0.79843 7.6207,-1.9353 11.906,-2.5265 9.8334,-1.3565 16.704,-4.6876 24.525,-11.89 3.5196,-3.2414 5.8089,-4.7999 5.3663,-3.6532 -0.42461,1.1 -1.6901,4.475 -2.8122,7.5 -1.1221,3.025 -3.1538,6.9921 -4.5149,8.8157 -1.3611,1.8236 -2.3168,3.4541 -2.1237,3.6233 0.19305,0.16921 3.3302,-0.0609 6.9715,-0.51137 8.7582,-1.0835 17.583,-4.269 21.063,-7.6036 3.7878,-3.6289 3.5942,-1.6638 -0.23897,2.426 l -3.0461,3.25 10.901,0 c 12.332,0 15.421,-0.7994 23.2,-6.0041 5.4869,-3.671 14.633,-7.6966 15.505,-6.8247 0.253,0.253 -2.3445,2.4223 -5.7723,4.8207 -9.8792,6.9124 -14.762,11.151 -14.092,12.235 0.34965,0.56575 2.8186,0.7914 5.6656,0.51782 4.6176,-0.44369 4.8344,-0.37401 2.5542,0.82071 -1.3705,0.71806 -5.5305,2.0103 -9.2445,2.8716 -7.5258,1.7453 -10.616,3.1118 -10.616,4.6947 0,0.6513 1.8953,0.92746 4.906,0.71481 2.6983,-0.19058 4.7228,-0.0511 4.4988,0.30989 -1.2321,1.9864 -11.275,4.1034 -22.905,4.8281 -12.155,0.7574 -22.714,2.9345 -23.952,4.9385 -0.66061,1.0689 14.085,3.8166 24.952,4.6495 7.0307,0.53888 14.12,-0.11965 22.5,-2.0902 1.7734,-0.41699 1.391,0.0256 -1.3162,1.5228 -6.0626,3.3531 -17.817,5.8872 -32.547,7.0169 -17.936,1.3756 -28.765,3.2681 -39.137,6.8398 -9.6314,3.3166 -29,12.148 -29,13.223 0,2.4451 32.699,3.9764 41.5,1.9435 l 4,-0.92393 -2.5,1.9003 c -8.7529,6.6533 -23.011,10.7 -42.5,12.062 -32.332,2.2594 -38.148,2.828 -41,4.0088 -2.9094,1.2045 -2.7283,1.2964 6,3.0458 4.95,0.99212 9.225,1.8384 9.5,1.8806 1.1001,0.16881 -6.8309,3.1907 -20.794,7.9229 -21.272,7.2092 -35.044,9.4837 -48.706,8.0437 z m 214.8,-85.577 c 1.8219,-3.5241 4.1963,-4.6688 14.358,-6.9219 3.9955,-0.88589 9.6273,-3.0745 12.75,-4.9549 6.1843,-3.724 7.3606,-2.7677 2.9879,2.4289 -4.6386,5.5126 -10.436,8.1404 -19.851,8.9986 -4.6884,0.42732 -9.248,1.3982 -10.174,2.1664 -1.5664,1.2993 -1.5711,1.1849 -0.0708,-1.7171 z m 51.702,-21.863 c 0,-0.25963 2.5875,-1.2121 5.75,-2.1166 3.1625,-0.90449 6.65,-2.37 7.75,-3.2566 1.1,-0.88665 0.44922,0.0658 -1.4462,2.1166 -2.9516,3.1935 -4.0639,3.7287 -7.75,3.7287 -2.3671,0 -4.3038,-0.21243 -4.3038,-0.47207 z m -72.039,-3.9868 c 1.283,-1.3657 3.9541,-3.0086 5.9357,-3.651 1.9816,-0.64231 4.953,-2.1101 6.603,-3.2617 l 3,-2.0939 -3.3983,4.3138 c -3.4885,4.4283 -5.0834,5.3697 -11.037,6.515 l -3.4357,0.66087 z m 47.164,-12.371 c 1.6566,-2.6526 5.8463,-4.1703 11.513,-4.1703 2.387,0 6.7074,-0.89544 9.6008,-1.9899 l 5.2607,-1.9899 -3.5096,3.326 c -5.0955,4.829 -6.8291,5.5101 -15.964,6.272 -8.2272,0.68612 -8.2323,0.68505 -6.9003,-1.4479 z"
         sodipodi:nodetypes="ssssscssssssssssssssssssssssscsssssssssscssssssssscsssssssssssssssssssssssssscsccssssc"
         id="path3074" />
      <path
         d="m 255.47,568.56 c -0.23982,-0.0327 -0.80337,0.26018 -2.0312,1.0625 -6.1563,4.0227 -11.898,5.8135 -22.75,7.0312 -5.7547,0.64572 -9.8243,1.3297 -15.5,2.5938 -8.8024,1.9605 -17.895,4.6379 -21.844,6.4375 -9.0953,4.1449 -18.397,14.611 -21.031,23.688 -1.6688,5.7488 -1.6216,12.658 0.125,17.875 3.3004,9.8576 13.279,18.899 26.594,24.094 5.1365,2.0042 8.9392,2.7789 14.656,3.0312 6.1395,0.27096 11.532,-0.0733 18.031,-1.1875 9.1408,-1.5671 28.769,-7.2875 28.438,-8.2812 -0.0571,-0.17124 -0.78642,-0.72121 -1.625,-1.2188 -0.83857,-0.49754 -1.5312,-1.0553 -1.5312,-1.25 0,-0.8122 7.0305,-2.6962 14,-3.75 6.6087,-0.9992 12.902,-1.6408 28.406,-2.8438 25.877,-2.0077 35.762,-3.0449 37.469,-4 0.47897,-0.26804 -1.6014,-0.47908 -7.625,-0.71875 -5.6283,-0.22395 -10.89,-0.94394 -16.812,-2.3125 -5.3725,-1.2414 -10.526,-3.0525 -11.875,-4.1875 -1.1902,-1.0015 -1.0045,-1.5724 0.78125,-2.4688 2.1363,-1.0723 21.507,-8.6034 25.625,-9.9688 9.4954,-3.148 22.537,-6.2919 32.969,-7.9375 2.2644,-0.35723 12.792,-1.4405 14.531,-1.5 1.8781,-0.0642 -1.7796,-0.67417 -11.438,-1.875 -19.541,-2.4297 -21.387,-2.9152 -17.438,-4.7812 2.921,-1.3801 6.4511,-2.3261 14.062,-3.6875 4.4166,-0.78997 7.9776,-1.7572 9.875,-2.7188 1.4496,-0.73458 1.4663,-0.89462 0.15625,-1.3438 -1.1854,-0.40642 -1.5167,-1.013 -0.90625,-1.6875 0.65978,-0.72906 2.3551,-1.5022 6.3438,-2.875 4.3995,-1.5142 5.1564,-1.8408 5.7812,-2.5312 0.44518,-0.49192 0.46009,-0.63179 0.125,-0.84375 -0.21609,-0.13668 -0.69737,-0.248 -1.0938,-0.25 -0.7238,-0.004 -1.5625,-0.60858 -1.5625,-1.125 0,-0.15221 0.39406,-0.67754 0.875,-1.1562 1.187,-1.1815 5.6701,-2.4963 11.156,-3.2812 1.3481,-0.1929 1.0703,-0.23338 -2.375,-0.375 -5.4995,-0.22606 -6.9816,0.0122 -12.969,2.0312 -6.6459,2.2411 -10.719,3.0759 -15.812,3.2812 -4.5432,0.18313 -5.0295,0.0449 -5.1562,-1.4375 l -0.09,-0.97 -2.875,1.5 c -4.0075,2.1044 -6.4872,2.8862 -9.6875,3.0625 -3.0236,0.16661 -4.167,-0.1408 -4.4375,-1.2188 -0.42708,-1.7016 2.8385,-5.3129 7.6875,-8.5 1.5229,-1.001 2.7292,-1.8646 2.6562,-1.9375 -0.17007,-0.17006 0.47671,-0.3353 -19.719,5.3125 -9.4854,2.6527 -17.392,4.8125 -17.562,4.8125 -0.45265,0 -0.37739,-0.58168 0.25,-2 0.91274,-2.0634 0.79759,-2.0958 -2.7188,-1.1875 -4.2778,1.105 -13.63,4.2276 -16.594,5.5625 -1.3514,0.60873 -2.6224,1.125 -2.8438,1.125 -0.56056,0 -0.9057,-0.49322 -1.25,-1.7812 -0.67529,-2.5263 1.02,-6.846 3.7812,-9.5938 0.93221,-0.92764 2.3226,-2.0916 3.0625,-2.5938 0.73991,-0.50221 1.1782,-0.97115 1,-1.0312 -0.45639,-0.15391 -6.0166,1.3769 -9,2.4688 -5.4243,1.9852 -8.1872,3.5603 -15.25,8.7188 -10.799,7.8874 -15.342,9.1478 -17.281,4.8125 -0.52884,-1.182 -0.632,-1.8392 -0.625,-4.0938 0.01,-2.9659 0.29697,-4.2333 2.0312,-8.6875 0.59033,-1.5162 1.048,-2.9524 1,-3.1875 -0.017,-0.0835 -0.0763,-0.11409 -0.15625,-0.125 z"
         inkscape:connector-curvature="0"
         style="fill:#f3a706"
         id="path3110" />
      <path
         d="m 368,549.66 c -0.88285,0.82319 -2.9497,2.856 -5.3438,5.25 2.394,-2.394 4.4574,-4.4292 5.3438,-5.25 z m 65.656,7.2188 c -0.37425,0.33673 -0.93899,0.82503 -1.6562,1.375 0.72826,-0.55848 1.2845,-1.0382 1.6562,-1.375 z m -68.66,1.68 c -0.7631,1.8002 -1.5305,3.559 -2.25,5.125 0.72067,-1.5701 1.4852,-3.3176 2.25,-5.125 z m -41.562,4.125 c -1.4479,0.33925 -3.0425,0.81042 -4.7188,1.375 1.6769,-0.56296 3.2707,-1.0363 4.7188,-1.375 z m 37.031,5.4688 c -0.87684,1.186 -1.4456,1.9695 -1.6875,2.5312 0.23838,-0.56335 0.79991,-1.3307 1.6875,-2.5312 z m -1.8125,3.0312 c -0.008,0.15454 0.0323,0.27673 0.125,0.375 -0.0919,-0.0987 -0.13407,-0.22004 -0.125,-0.375 z m 9.5938,0.0312 c -1.1552,0.22516 -2.3108,0.40884 -3.4062,0.53125 1.0954,-0.12254 2.251,-0.30587 3.4062,-0.53125 z m -8.7188,0.625 c 0.50303,0.0737 1.2337,0.0981 2.1875,0.0937 -0.95377,0.004 -1.6856,-0.0194 -2.1875,-0.0937 z m -37.625,11.469 c -1.0538,0.19729 -4.9969,1.6679 -9.5312,3.5625 -10.304,4.3053 -25.786,9.0625 -29.469,9.0625 l -2.3125,0 2.4062,-4.25 c 3.3048,-5.78 3.1426,-8.0997 -0.3125,-4.1875 -3.7281,4.2213 -8.7737,7.0905 -15.625,8.875 -6.0393,1.573 -24.541,3.3199 -23.531,2.2188 0.31846,-0.34738 5.6644,-1.7513 11.875,-3.125 11.473,-2.5377 16.864,-4.9913 19.562,-8.8438 2.463,-3.5165 1.7635,-3.7038 -3.9375,-1.0938 -4.4692,2.046 -6.9831,2.4884 -14.281,2.5 -4.8751,0.008 -10.159,-0.45752 -11.75,-1.0625 -4.7978,-1.8241 -17.706,-2.3841 -26.625,-1.125 -20.861,2.9448 -32.939,10.537 -37.906,23.812 -6.0006,16.038 2.7053,29.925 22.781,36.344 7.4376,2.3781 12.96,2.3757 27.25,-0.0625 6.4668,-1.1034 16.076,-3.3473 21.344,-4.9688 5.2676,-1.6215 12.842,-3.6154 16.844,-4.4375 8.4317,-1.7323 37.408,-5.5372 43.281,-5.6875 l 4,-0.0937 -4,-0.9375 c -2.2,-0.50535 -7.6,-2.0673 -12,-3.5 -8.0041,-2.6062 -11.366,-4.375 -8.3438,-4.375 5.4058,0 40.844,-14.994 40.844,-17.281 0,-0.56159 -1.8454,-0.64808 -4.5,-0.25 -6.9706,1.0453 -6.3838,0.22266 6,-8.375 6.1269,-4.2537 14.746,-12.086 12,-10.906 -0.55,0.23625 -3.5028,1.6144 -6.5625,3.0938 -6.1521,2.9746 -25.609,8.3913 -26.594,7.4062 -0.34359,-0.3436 1.7173,-3.1681 4.5625,-6.2812 2.8452,-3.1131 4.9886,-5.8239 4.7812,-6.0312 -0.0259,-0.0259 -0.0995,-0.0282 -0.25,0 z m 88.156,0.21875 c 0.13335,0.0117 0.24223,0.0426 0.3125,0.0625 -0.0656,-0.0284 -0.14195,-0.0476 -0.3125,-0.0625 z m -5.56,3.09 c -0.86585,0.30483 -1.8449,0.57089 -2.9375,0.8125 1.0954,-0.24162 2.0695,-0.50543 2.9375,-0.8125 z m -35.719,5.0312 c -2.1874,0.58992 -3.7329,1.2342 -4.4688,1.875 0.73254,-0.63855 2.2968,-1.2844 4.4688,-1.875 z m -4.8125,2.25 c -0.0379,0.0613 -0.0173,0.11861 0.0312,0.1875 -0.0388,-0.063 -0.0662,-0.1309 -0.0312,-0.1875 z m 47.281,2.4375 c 0.0133,0.0181 0.0371,0.0363 0.0312,0.0625 0.008,-0.0365 -0.002,-0.0418 -0.0312,-0.0625 z m -0.125,0.28125 c -0.17371,0.1662 -0.49862,0.39682 -0.96875,0.6875 0.48386,-0.29773 0.79204,-0.51888 0.96875,-0.6875 z m -9.7812,4.625 c -1.582,0.47822 -3.346,0.91111 -5.3125,1.3125 1.9686,-0.40243 3.7286,-0.83339 5.3125,-1.3125 z m -35.656,4.9688 c -3.8264,0.44392 -7.2896,0.91951 -10.594,1.5 3.296,-0.57681 6.7778,-1.0581 10.594,-1.5 z m -20.71,25.91 c -1.7326,0.81259 -3.6245,1.6049 -5.5938,2.3438 1.9623,-0.73689 3.8666,-1.5338 5.5938,-2.3438 z m -10.06,3.88 c -1.194,0.37641 -2.4197,0.73903 -3.625,1.0625 1.2185,-0.32707 2.4179,-0.68131 3.625,-1.0625 z m -7.2188,1.9375 c -1.4776,0.32249 -3.2589,0.64364 -5.2812,0.9375 2.0206,-0.29259 3.8036,-0.61501 5.2812,-0.9375 z m -5.2812,0.9375 c -2.0224,0.29386 -4.281,0.55484 -6.7812,0.8125 2.4979,-0.25596 4.7606,-0.51991 6.7812,-0.8125 z m -47.66,8.03 c 3.3835,0.53821 6.5455,1.1402 8.125,1.5312 -1.5764,-0.38752 -4.7415,-0.99304 -8.125,-1.5312 z m -89.688,8.2812 c 1.3561,0.86852 2.7616,1.6916 4.2188,2.4688 -1.4486,-0.77375 -2.87,-1.6046 -4.2188,-2.4688 z m 61.6,6.81 c -1.7192,0.44502 -3.4414,0.85619 -5.1562,1.2188 1.7148,-0.36219 3.437,-0.77373 5.1562,-1.2188 z m -5.16,1.22 c -1.7149,0.36256 -3.4296,0.68977 -5.125,0.96875 1.6953,-0.27834 3.4102,-0.60656 5.125,-0.96875 z m -7.6562,1.3438 c -1.6799,0.23677 -3.3311,0.44225 -4.9688,0.59375 1.6375,-0.15067 3.289,-0.35772 4.9688,-0.59375 z"
         inkscape:connector-curvature="0"
         style="fill:#fcea01"
         id="path3121" />
    </g>
    <text
       xml:space="preserve"
       style="font-style:normal;font-variant:normal;font-weight:normal;font-stretch:normal;font-size:28.91271019px;line-height:125%;font-family:'Ubuntu Condensed';-inkscape-font-specification:'Ubuntu Condensed, ';letter-spacing:0px;word-spacing:0px;fill:#000000;fill-opacity:1;stroke:none;stroke-width:1px;stroke-linecap:butt;stroke-linejoin:miter;stroke-opacity:1"
       x="259.23279"
       y="981.01764"
       id="text4097"
       sodipodi:linespacing="125%"><tspan
         sodipodi:role="line"
         id="tspan4099"
         x="259.23279"
         y="981.01764"
         style="font-style:normal;font-variant:normal;font-weight:normal;font-stretch:normal;font-size:130.10719299px;font-family:'Arial Black';-inkscape-font-specification:'Arial Black, '">IAM</tspan></text>
    <text
       xml:space="preserve"
       style="font-style:normal;font-weight:normal;font-size:55.88247681px;line-height:125%;font-family:sans-serif;letter-spacing:0px;word-spacing:0px;fill:#000000;fill-opacity:1;stroke:none;stroke-width:1px;stroke-linecap:butt;stroke-linejoin:miter;stroke-opacity:1"
       x="308.01111"
       y="839.61938"
       id="text4101"
       sodipodi:linespacing="125%"><tspan
         sodipodi:role="line"
         id="tspan4103"
         x="308.01111"
         y="839.61938"
         style="font-style:normal;font-variant:normal;font-weight:normal;font-stretch:normal;font-size:125.73558807px;font-family:'Nostalgia BRK';-inkscape-font-specification:'Nostalgia BRK'">Fusion</tspan></text>
    <g
       transform="translate(-229.04312,368.77482)"
       id="layer1-72">
      <path
         d="m 380.88,665.66 c -7.4098,-2.0489 -13.925,-6.4596 -22.263,-15.072 -9.3226,-9.6293 -18.531,-23.15 -22.288,-32.724 l -2.7178,-6.9272 2.8774,-6.0202 c 3.9667,-8.2993 4.8781,-8.8202 6.4094,-3.6631 1.8048,6.0783 8.2843,19.236 12.945,26.287 5.0777,7.6818 15.503,19.092 19.182,20.994 3.4094,1.763 8.8318,1.8516 11.022,0.17994 5.3051,-4.0485 6.5246,-15.74 2.5263,-24.218 -4.3423,-9.208 -10.25,-12.444 -15.101,-8.2721 -2.4122,2.0749 -2.8249,3.2813 -3.2751,9.5731 -0.2833,3.9595 -0.82043,7.199 -1.1936,7.199 -1.2924,0 -5.8416,-5.5178 -7.8324,-9.5 -1.9286,-3.8577 -5.2203,-13.841 -5.2203,-15.832 0,-0.5327 1.3528,0.89898 3.0063,3.1815 1.6534,2.2825 3.791,4.157 4.75,4.1655 0.95905,0.009 3.3482,-1.8496 5.3092,-4.1291 3.1359,-3.6452 4.1881,-4.2044 8.7331,-4.6411 10.334,-0.99294 19.411,5.9977 23.704,18.255 2.304,6.5785 3.1849,23.865 1.4834,29.107 -3.4079,10.5 -11.564,14.958 -22.057,12.057 z m -62.153,-45.924 c -7.9329,-20.12 -11.038,-34.341 -10.97,-50.24 0.0504,-11.688 2.277,-22.824 6.0371,-30.195 3.7772,-7.404 11.406,-16.383 17.791,-20.939 7.4334,-5.3044 18.808,-9.6197 24.178,-9.1731 l 3.6867,0.30659 0.65426,6.6145 c 1.0471,10.586 4.7535,15.7 10.36,14.293 7.8464,-1.9693 6.5738,-18.266 -2.1481,-27.508 l -2.4545,-2.6008 6.2941,-1.5587 6.2941,-1.5587 2.8432,2.6595 c 1.5638,1.4627 4.028,4.9095 5.476,7.6595 2.2364,4.2472 2.6364,6.2798 2.6568,13.5 0.029,10.284 -1.897,14.928 -7.8134,18.839 -3.3451,2.2114 -5.1471,2.6603 -10.671,2.6582 -5.5831,-0.002 -7.3144,-0.44504 -10.827,-2.7693 -3.7688,-2.4941 -9.4007,-8.9858 -10.448,-12.043 -0.71306,-2.0818 -9.0682,2.7759 -16.119,9.3716 -9.5286,8.9136 -14.598,20.688 -14.598,33.904 0,8.0322 4.1143,27.096 5.8276,27.002 0.36985,-0.0202 3.3724,-3.9443 6.6724,-8.7201 3.3,-4.7758 8.7838,-12.16 12.186,-16.41 l 6.1861,-7.7263 -2.0087,-2.5536 c -1.5274,-1.9417 -2.9238,-2.5536 -5.8277,-2.5536 -4.3491,0 -4.6039,0.50115 -5.7063,11.225 -0.52973,5.1529 -1.3766,7.3167 -4.7344,12.097 -3.7622,5.3556 -4.1416,5.6356 -4.7425,3.5 -2.5326,-8.9998 1.2131,-34.194 5.8908,-39.622 4.2467,-4.9278 23.701,2.2902 33.177,12.309 l 5.2707,5.573 -6.3063,4.2091 c -17.358,11.586 -32.638,32.06 -39.35,52.729 -0.97884,3.0141 -2.0799,5.8131 -2.4468,6.2202 -0.36691,0.40702 -2.3065,-3.418 -4.3103,-8.5 z m -28.083,-76.385 c -2.633,-5.1269 -6.4919,-18.724 -7.744,-27.287 -0.79097,-5.4095 -1.0202,-13.74 -0.64586,-23.476 0.66145,-17.205 3.1987,-29.942 9.1832,-46.099 4.0516,-10.939 13.894,-30.503 18.157,-36.092 l 2.698,-3.5373 3.1675,8.8186 c 8.4356,23.486 22.797,43.842 41.343,58.599 l 6.4812,5.1573 -7.2387,3.2832 -7.2386,3.2832 -7.3949,-5.5656 c -10.229,-7.6984 -21.023,-18.022 -26.962,-25.786 -2.75,-3.5955 -5.501,-6.5631 -6.1134,-6.5947 -1.5988,-0.0826 -5.8957,10.071 -8.3404,19.709 -1.9886,7.8394 -2.9518,21.662 -1.6033,23.01 0.34417,0.34417 4.9172,-3.7502 10.162,-9.0986 5.2452,-5.3484 10.654,-10.456 12.02,-11.351 2.4035,-1.5748 2.6013,-1.5154 6.1791,1.8575 2.0329,1.9164 4.8875,4.3751 6.3437,5.4637 l 2.6476,1.9792 -7.4406,5.756 c -13.987,10.82 -25.096,27.706 -32.227,48.986 -3.9607,11.819 -3.9704,11.836 -5.4339,8.9859 z m 25.306,-25.845 c 0,-1.9475 3.503,-6.695 8.2591,-11.193 8.9277,-8.4435 15.752,-12.293 47.221,-26.635 9.7118,-4.4262 20.388,-14.918 23.374,-22.969 1.1803,-3.1831 2.146,-7.6158 2.146,-9.8504 l 0,-4.0628 -5.5631,5.0844 c -7.378,6.7431 -18.699,14.088 -27.889,18.096 l -7.4644,3.2545 -3.987,-3.1578 c -2.1929,-1.7368 -5.18,-4.5756 -6.6382,-6.3085 l -2.6512,-3.1508 4.5345,-2.1884 c 8.6917,-4.1948 11.491,-6.4498 13.719,-11.053 1.7704,-3.6571 2.0992,-5.683 1.6773,-10.335 -0.28859,-3.1825 -1.3383,-7.0811 -2.3328,-8.6636 -3.5288,-5.6152 -7.5506,-10.325 -11.464,-13.424 l -3.9655,-3.1407 -2.4607,5.3748 c -1.3534,2.9562 -2.8956,8.4462 -3.4273,12.2 -0.53162,3.7539 -1.1881,7.0468 -1.4589,7.3176 -1.0298,1.0298 -3.6284,-10.321 -3.6284,-15.849 0,-6.4338 2.7255,-14.79 6.2542,-19.176 l 2.2689,-2.8198 7.4885,3.8198 c 9.8372,5.0179 20.558,15.532 24.017,23.553 1.3595,3.1531 2.7698,5.7406 3.1339,5.75 1.1358,0.0293 2.0451,-7.797 1.3701,-11.792 -1.1031,-6.529 -6.0569,-13.845 -12.673,-18.715 -6.1898,-4.5566 -7.8597,-4.8576 -7.8597,-1.4166 0,2.7402 -1.0532,2.4432 -5.827,-1.643 -4.8872,-4.1832 -8.6776,-10.365 -9.6065,-15.666 -0.36139,-2.0625 -1.026,-3.75 -1.4769,-3.75 -1.9699,0 -5.9917,4.278 -6.5922,7.0122 -0.41432,1.8864 -1.2822,2.9878 -2.3543,2.9878 -2.7337,0 -6.2448,2.9993 -7.7621,6.6307 -0.77429,1.8531 -1.7547,3.3693 -2.1788,3.3693 -1.7358,0 -4.7068,-6.855 -5.2008,-12 l -0.52814,-5.5 -1.867,3.7847 c -2.3122,4.6872 -7.5032,9.0683 -12.528,10.574 -7.2383,2.1686 -7.7064,1.521 -2.739,-3.7896 5.2288,-5.59 11.93,-15.633 16.511,-24.746 3.6356,-7.2318 5.1479,-8.5904 5.1557,-4.6319 0.008,4.0547 1.7985,9.9015 3.4524,11.274 1.179,0.97847 1.5231,0.52425 2.0016,-2.6418 1.8124,-11.994 4.9096,-20.043 10.074,-26.181 1.4544,-1.7284 2.3326,-3.1426 1.9516,-3.1426 -0.38097,0 -3.721,1.5914 -7.4223,3.5363 -13.987,7.3501 -28.915,21.594 -40.136,38.297 -2.7097,4.0336 -4.9267,6.7245 -4.9267,5.9799 0,-2.8253 4.1672,-16.226 6.9634,-22.393 1.6028,-3.5348 5.018,-9.5627 7.5894,-13.395 4.7941,-7.1455 18.042,-20.568 24.699,-25.025 7.0207,-4.7003 4.7066,-4.7913 -9.0252,-0.35486 -13.895,4.4892 -31.689,14.331 -29.589,16.366 0.47429,0.45947 2.2124,0.98252 3.8624,1.1623 2.9574,0.32231 2.9313,0.36076 -1.8425,2.711 -6.7481,3.3221 -15.211,11.898 -18.214,18.459 -5.0557,11.043 -4.3322,23.017 2.6682,44.157 5.2763,15.933 7.2429,28.896 6.5235,43 -0.83553,16.381 -4.1163,25.877 -11.296,32.697 -2.7032,2.5678 -10.136,6.3394 -10.93,5.5458 -0.2059,-0.2059 1.1546,-3.2698 3.0234,-6.8086 5.4138,-10.252 6.8907,-16.768 6.3492,-28.013 -0.45649,-9.48 -0.62192,-10.035 -7.0189,-23.565 -14.148,-29.923 -18.889,-53.412 -14.28,-70.752 3.5409,-13.321 14.966,-30.173 26.214,-38.666 9.7663,-7.3736 23.643,-12.914 32.447,-12.954 7.8705,-0.0359 7.2833,-3.8473 -0.92458,-6.0008 l -4.7198,-1.2384 5.3569,-2.4874 c 6.0981,-2.8316 26.323,-7.2319 33.311,-7.2476 5.5196,-0.0124 7.8318,-0.75122 7.8318,-2.5025 0,-1.5197 -4.2855,-4.508 -6.4648,-4.508 -0.84435,0 -1.5352,-0.45 -1.5352,-1 0,-1.787 8.4538,-1.058 16.84,1.4522 9.2642,2.7729 18.809,4.1037 22.603,3.1514 3.7607,-0.94388 3.2444,-4.0477 -1.193,-7.1712 l -3.75,-2.6397 5.7742,0.6152 c 12.948,1.3796 34.354,9.8333 48.162,19.021 7.8769,5.2411 22.051,18.875 24.627,23.688 1.2442,2.3248 1.2396,2.327 -1.1567,0.56915 -5.4165,-3.9736 -21.089,-10.768 -29.466,-12.774 -10.896,-2.6096 -24.327,-2.2216 -34.44,0.99503 -7.9344,2.5238 -7.6926,2.5162 -5.5746,0.17578 0.95444,-1.0546 1.5867,-2.9671 1.405,-4.25 -0.27198,-1.9203 -1.0204,-2.3889 -4.235,-2.652 -5.2692,-0.43127 -7.8698,0.33822 -11.518,3.4082 -3.3558,2.8237 -3.9185,5.4682 -1.5771,7.4114 3.5131,2.9156 0.91997,10.429 -6.3519,18.404 -2.2164,2.4308 -2.3221,2.7747 -0.64813,2.1094 4.0616,-1.6142 12.018,-3.5137 14.718,-3.5137 1.5301,0 2.7821,-0.37156 2.7821,-0.82569 0,-1.3185 -4.4893,-5.1714 -6.0644,-5.2047 -1.0359,-0.0219 -0.93878,-0.31953 0.34885,-1.0689 1.3078,-0.76115 3.1774,-0.56201 7,0.74561 3.8715,1.3244 8.0056,1.752 16.042,1.6594 5.9544,-0.0686 11.053,-0.35192 11.331,-0.62955 0.68358,-0.68359 -1.4323,-4.6455 -4.0322,-7.5503 l -2.125,-2.3742 2.5,0.72805 c 4.4658,1.3005 11.391,5.7927 14.822,9.6148 6.9055,7.6923 13.842,7.5886 9.394,-0.14033 -2.0729,-3.6018 -2.1171,-3.9522 -0.49586,-3.9322 5.8872,0.0726 16.449,8.9169 17.756,14.869 0.32089,1.461 2.0538,3.8296 3.8508,5.2635 1.7971,1.4339 4.7425,5.3748 6.5455,8.7575 1.803,3.3827 4.1515,6.9641 5.219,7.9586 1.8282,1.7033 1.85,2.0256 0.37551,5.5546 -2.035,4.8703 -0.5343,10.269 3.1086,11.183 3.4898,0.87587 5.2017,-0.0899 6.7708,-3.8198 l 1.3834,-3.2885 0.7253,4.5938 c 1.3508,8.5551 -3.2276,17.931 -10.973,22.469 -4.9938,2.9266 -6.4823,3.055 -6.4823,0.55921 0,-1.0326 -0.69407,-2.4536 -1.5424,-3.1576 -1.0701,-0.88808 -1.2232,-1.5993 -0.5,-2.3224 0.57331,-0.57331 1.0424,-2.309 1.0424,-3.8571 0,-5.9923 -11.422,-9.1579 -15.889,-4.4035 -1.7535,1.8665 -2.1698,3.3269 -1.9243,6.75 0.28242,3.938 0.63333,4.4716 3.5629,5.4186 2.4608,0.7954 2.9687,1.3313 2.0924,2.2076 -1.3683,1.3683 0.51528,4.242 2.7804,4.242 3.5287,0 -0.51407,5.4791 -5.1786,7.0186 -4.6538,1.5359 -8.2995,0.53865 -11.751,-3.2143 -2.5025,-2.7213 -3.2616,-2.9928 -7,-2.503 -4.1723,0.54661 -4.1794,0.54208 -1.4302,-0.91468 2.1591,-1.144 2.7146,-2.0986 2.5417,-4.3675 -0.16059,-2.1076 0.50131,-3.4719 2.4147,-4.9769 3.3534,-2.6378 5.1722,-7.8823 3.8968,-11.237 -1.9938,-5.2442 -12.239,-10.774 -20.048,-10.821 -1.4127,-0.008 -3.1904,-0.40916 -3.9504,-0.89053 -2.7173,-1.721 8.2149,-6.9645 14.699,-7.0503 2.9632,-0.0392 3.2464,-0.28411 2.6528,-2.2939 -1.2084,-4.0908 -5.2829,-9.4712 -8.8351,-11.666 -4.8241,-2.9815 -16.933,-5.4008 -23.058,-4.6069 -5.9506,0.77136 -8.4049,1.9162 -11.2,5.2241 -2.0638,2.4428 -2.1951,2.4648 -4.7427,0.79556 -5.3863,-3.5292 -10.001,0.26307 -9.8817,8.1215 0.0754,4.9868 1.3085,7.5422 6.2566,12.966 2.0492,2.2463 4.2783,5.7585 4.9537,7.8049 1.0165,3.0801 2.1155,4.1166 6.3823,6.0196 16.491,7.3551 40.985,32.088 47.031,47.49 3.7981,9.6763 2.7052,25.765 -2.3844,35.101 -1.7993,3.3004 -1.9144,3.3574 -2.0176,1 -0.16988,-3.8818 -0.95232,-9.3112 -1.4074,-9.7664 -0.22603,-0.22602 -2.5669,3.3414 -5.2019,7.9277 -6.6919,11.647 -12.868,17.52 -24.399,23.2 -8.117,3.9981 -11.947,5.1475 -26.875,8.0659 -18.971,3.7088 -28.942,7.6669 -38.765,15.388 -5.6903,4.473 -7.3264,5.5213 -7.3264,4.6943 z m 129.99,-154.21 c 0,-4.8932 -2.7538,-9.3144 -5.8015,-9.3144 -2.0882,0 -1.0638,9.3864 1.3107,12.01 3.0525,3.373 4.4908,2.5096 4.4908,-2.6957 z"
         id="path2996"
         inkscape:connector-curvature="0" />
    </g>
  </g>
</svg>
